[gd_scene load_steps=4 format=2]

[ext_resource path="res://assets/gfx/enemies/cloud.png" type="Texture" id=1]
[ext_resource path="res://enemies/Cloud.gd" type="Script" id=2]

[sub_resource type="Animation" id=1]
resource_name = "CloudDrift"
length = 8.0
loop = true
step = 1.0
tracks/0/type = "value"
tracks/0/path = NodePath(".:position")
tracks/0/interp = 1
tracks/0/loop_wrap = true
tracks/0/imported = false
tracks/0/enabled = true
tracks/0/keys = {
"times": PoolRealArray( 0, 2, 6 ),
"transitions": PoolRealArray( 1, 1, 1 ),
"update": 0,
"values": [ Vector2( 0, 0 ), Vector2( -500, 0 ), Vector2( 500, 0 ) ]
}

[node name="Cloud" type="Node2D"]
script = ExtResource( 2 )

[node name="Sprite" type="Sprite" parent="."]
texture = ExtResource( 1 )

[node name="AnimationPlayer" type="AnimationPlayer" parent="Sprite"]
autoplay = "CloudDrift"
anims/CloudDrift = SubResource( 1 )

[node name="Timer" type="Timer" parent="Sprite"]

[node name="RayCast2D" type="RayCast2D" parent="Sprite"]
enabled = true
cast_to = Vector2( 0, 750 )
[connection signal="timeout" from="Sprite/Timer" to="." method="_on_Timer_timeout"]
